module gitlab.com/benoit-dardelet/shelob

go 1.22.1

require (
	github.com/beevik/etree v1.3.0
	github.com/goccy/go-graphviz v0.1.2
	github.com/skratchdot/open-golang v0.0.0-20200116055534-eef842397966
)

require (
	fyne.io/systray v1.10.1-0.20231115130155-104f5ef7839e // indirect
	github.com/davecgh/go-spew v1.1.1 // indirect
	github.com/fredbi/uri v1.0.0 // indirect
	github.com/fsnotify/fsnotify v1.6.0 // indirect
	github.com/fyne-io/gl-js v0.0.0-20220119005834-d2da28d9ccfe // indirect
	github.com/fyne-io/glfw-js v0.0.0-20220120001248-ee7290d23504 // indirect
	github.com/fyne-io/image v0.0.0-20220602074514-4956b0afb3d2 // indirect
	github.com/go-gl/gl v0.0.0-20211210172815-726fda9656d6 // indirect
	github.com/go-gl/glfw/v3.3/glfw v0.0.0-20240306074159-ea2d69986ecb // indirect
	github.com/go-text/render v0.1.0 // indirect
	github.com/go-text/typesetting v0.1.0 // indirect
	github.com/godbus/dbus/v5 v5.1.0 // indirect
	github.com/gopherjs/gopherjs v1.17.2 // indirect
	github.com/jsummers/gobmp v0.0.0-20151104160322-e2ba15ffa76e // indirect
	github.com/niemeyer/pretty v0.0.0-20200227124842-a10e7caefd8e // indirect
	github.com/pmezard/go-difflib v1.0.0 // indirect
	github.com/srwiley/oksvg v0.0.0-20221011165216-be6e8873101c // indirect
	github.com/srwiley/rasterx v0.0.0-20220730225603-2ab79fcdd4ef // indirect
	github.com/stretchr/testify v1.8.4 // indirect
	github.com/tevino/abool v1.2.0 // indirect
	github.com/yuin/goldmark v1.5.5 // indirect
	golang.org/x/mobile v0.0.0-20230531173138-3c911d8e3eda // indirect
	golang.org/x/net v0.17.0 // indirect
	golang.org/x/sys v0.13.0 // indirect
	golang.org/x/text v0.14.0 // indirect
	gopkg.in/check.v1 v1.0.0-20200227125254-8fa46927fb4f // indirect
	gopkg.in/yaml.v3 v3.0.1 // indirect
	honnef.co/go/js/dom v0.0.0-20210725211120-f030747120f2 // indirect
)

require (
	fyne.io/fyne/v2 v2.4.5
	github.com/fogleman/gg v1.3.0 // indirect
	github.com/golang/freetype v0.0.0-20170609003504-e2365dfdc4a0 // indirect
	github.com/pkg/errors v0.9.1 // indirect
	golang.org/x/image v0.15.0 // indirect
)
